<svg width="40" height="24" viewBox="0 0 40 24" fill="none" xmlns="http://www.w3.org/2000/svg">
<path d="M33.6 10.425C33.8562 9.85179 34 9.225 34 8.57143C34 5.73214 31.3125 3.42857 28 3.42857C26.7687 3.42857 25.6188 3.75 24.6688 4.29643C22.9375 1.725 19.7062 0 16 0C10.475 0 6 3.83571 6 8.57143C6 8.71607 6.00625 8.86071 6.0125 9.00536C2.5125 10.0607 0 12.9214 0 16.2857C0 20.5446 4.03125 24 9 24H32C36.4188 24 40 20.9304 40 17.1429C40 13.8268 37.25 11.0571 33.6 10.425ZM25.2938 15.1768L18.7062 20.8232C18.3187 21.1554 17.6813 21.1554 17.2938 20.8232L10.7063 15.1768C10.075 14.6357 10.525 13.7143 11.4125 13.7143H15.5V7.71429C15.5 7.24286 15.95 6.85714 16.5 6.85714H19.5C20.05 6.85714 20.5 7.24286 20.5 7.71429V13.7143H24.5875C25.475 13.7143 25.925 14.6357 25.2938 15.1768Z" fill="#6F86D6"/>
</svg>
